Jan 17, 2021 7:05:41 PM loggingService.LoggingService logMessage
INFO: src\resources\Meme_11.jfif. The function took 73ms to execute.
Jan 17, 2021 7:05:41 PM loggingService.LoggingService logMessage
INFO: src\resources\Meme_2.png. The function took 77ms to execute.
Jan 17, 2021 7:05:41 PM loggingService.LoggingService logMessage
INFO: src\resources\Meme_3.jpg. The function took 82ms to execute.
Jan 17, 2021 7:05:41 PM loggingService.LoggingService logMessage
INFO: src\resources\Meme_4.jpg. The function took 89ms to execute.
Jan 17, 2021 7:05:41 PM loggingService.LoggingService logMessage
INFO: src\resources\Meme_5.jpg. The function took 99ms to execute.
Jan 17, 2021 7:05:41 PM loggingService.LoggingService logMessage
INFO: src\resources\Meme_6.jpg. The function took 105ms to execute.
Jan 17, 2021 7:05:41 PM loggingService.LoggingService logMessage
INFO: src\resources\Meme_7.jpg. The function took 111ms to execute.
Jan 17, 2021 7:05:41 PM loggingService.LoggingService logMessage
INFO: src\resources\Meme_8.jfif. The function took 117ms to execute.
Jan 17, 2021 7:05:41 PM loggingService.LoggingService logMessage
INFO: src\resources\Meme_9.jfif. The function took 124ms to execute.
Jan 17, 2021 7:05:41 PM loggingService.LoggingService logMessage
INFO: src\resources\META-INF. The function took 133ms to execute.
